{
	"$schema": "http://json-schema.org/draft-04/schema",
	"type": "object",
	"properties": {
		"cin": {
			"type": "string"
		},
    	"firstname": {
			"type": "string"
		},
    	"lastname": {
			"type": "string"
		},
		"dateofbirth": {
			"type": "string"
		},
    	"address": {
			"type": "string"
		},
    	"postcode": {
			"type": "string"
		},
		"city": {
			"type": "string"
		}
	}
}